// Jest Snapshot v1, https://goo.gl/fbAQLP

exports[`TweetList renders correctly 1`] = `
<div
  className="gridWraper"
>
  <div
    className="gridList"
  >
    <a
      data-radium={true}
      href="/tweet/a"
      onClick={[Function]}
    >
      <div
        className="gridItem"
        data-radium={true}
        onMouseEnter={[Function]}
        onMouseLeave={[Function]}
        style={Object {}}
      >
        <div
          className="meta"
          data-radium={true}
        >
          <h3
            className="itemTitle"
            data-radium={true}
          >
            <div
              className="userData"
              data-radium={true}
            >
              <div
                className="user"
                data-radium={true}
              >
                <img
                  alt=""
                  className="userImage"
                  height="20"
                  src={undefined}
                  width="20"
                />
                <span
                  className="usernameText"
                />
              </div>
            </div>
          </h3>
          <p
            className="tweetText"
            data-radium={true}
          >
             
             
          </p>
          <p
            data-radium={true}
          >
             
            12:NaN AM - Invalid Date
             
          </p>
        </div>
      </div>
    </a>
    <a
      data-radium={true}
      href="/tweet/b"
      onClick={[Function]}
    >
      <div
        className="gridItem"
        data-radium={true}
        onMouseEnter={[Function]}
        onMouseLeave={[Function]}
        style={Object {}}
      >
        <div
          className="meta"
          data-radium={true}
        >
          <h3
            className="itemTitle"
            data-radium={true}
          >
            <div
              className="userData"
              data-radium={true}
            >
              <div
                className="user"
                data-radium={true}
              >
                <img
                  alt=""
                  className="userImage"
                  height="20"
                  src={undefined}
                  width="20"
                />
                <span
                  className="usernameText"
                />
              </div>
            </div>
          </h3>
          <p
            className="tweetText"
            data-radium={true}
          >
             
             
          </p>
          <p
            data-radium={true}
          >
             
            12:NaN AM - Invalid Date
             
          </p>
        </div>
      </div>
    </a>
  </div>
</div>
`;
